#Random seed
#1448391749786
#"Parameters"
#LPS-evap,LPS-1st-dose,LPS-1st-duration,LPS-1st-time,LPS-2nd-dose,LPS-2nd-duration,LPS-2nd-time,mac-act-LPS,mac-act-pro,mac-regen,mac-age,mac-act-dam,max-pro-dam,pro-dam-thresh,damage-evap,anti-heal-thresh,mac-anti,anti-evap,pro-evap,mac-prop
#0.98,50.0,1.0,100.0,50.0,1.0,670.0,0.6,0.5,10.0,20.0,0.6,10.0,0.8,0.99,1.2,0.5,0.99,0.94,5.0
#Experiment
Tick,LPS,Phagocyte,Act Phag,Anti-Inflam,Damage,Pro-inflam
0,0.0,30.0,0.0,0.0,0.0,0.0
1,0.0,30.0,0.0,0.0,0.0,0.0
2,0.0,30.0,0.0,0.0,0.0,0.0
3,0.0,30.0,0.0,0.0,0.0,0.0
4,0.0,30.0,0.0,0.0,0.0,0.0
5,0.0,30.0,0.0,0.0,0.0,0.0
6,0.0,30.0,0.0,0.0,0.0,0.0
7,0.0,30.0,0.0,0.0,0.0,0.0
8,0.0,30.0,0.0,0.0,0.0,0.0
9,0.0,30.0,0.0,0.0,0.0,0.0
10,0.0,30.0,0.0,0.0,0.0,0.0
11,0.0,30.0,0.0,0.0,0.0,0.0
12,0.0,30.0,0.0,0.0,0.0,0.0
13,0.0,30.0,0.0,0.0,0.0,0.0
14,0.0,30.0,0.0,0.0,0.0,0.0
15,0.0,30.0,0.0,0.0,0.0,0.0
16,0.0,30.0,0.0,0.0,0.0,0.0
17,0.0,30.0,0.0,0.0,0.0,0.0
18,0.0,30.0,0.0,0.0,0.0,0.0
19,0.0,30.0,0.0,0.0,0.0,0.0
20,0.0,30.0,0.0,0.0,0.0,0.0
21,0.0,30.0,0.0,0.0,0.0,0.0
22,0.0,30.0,0.0,0.0,0.0,0.0
23,0.0,30.0,0.0,0.0,0.0,0.0
24,0.0,30.0,0.0,0.0,0.0,0.0
25,0.0,30.0,0.0,0.0,0.0,0.0
26,0.0,30.0,0.0,0.0,0.0,0.0
27,0.0,30.0,0.0,0.0,0.0,0.0
28,0.0,30.0,0.0,0.0,0.0,0.0
29,0.0,30.0,0.0,0.0,0.0,0.0
30,0.0,37.0,0.0,0.0,0.0,0.0
31,0.0,37.0,0.0,0.0,0.0,0.0
32,0.0,37.0,0.0,0.0,0.0,0.0
33,0.0,37.0,0.0,0.0,0.0,0.0
34,0.0,37.0,0.0,0.0,0.0,0.0
35,0.0,37.0,0.0,0.0,0.0,0.0
36,0.0,37.0,0.0,0.0,0.0,0.0
37,0.0,37.0,0.0,0.0,0.0,0.0
38,0.0,37.0,0.0,0.0,0.0,0.0
39,0.0,37.0,0.0,0.0,0.0,0.0
40,0.0,37.0,0.0,0.0,0.0,0.0
41,0.0,37.0,0.0,0.0,0.0,0.0
42,0.0,37.0,0.0,0.0,0.0,0.0
43,0.0,37.0,0.0,0.0,0.0,0.0
44,0.0,37.0,0.0,0.0,0.0,0.0
45,0.0,37.0,0.0,0.0,0.0,0.0
46,0.0,36.0,0.0,0.0,0.0,0.0
47,0.0,36.0,0.0,0.0,0.0,0.0
48,0.0,36.0,0.0,0.0,0.0,0.0
49,0.0,36.0,0.0,0.0,0.0,0.0
50,0.0,32.0,0.0,0.0,0.0,0.0
51,0.0,32.0,0.0,0.0,0.0,0.0
52,0.0,32.0,0.0,0.0,0.0,0.0
53,0.0,32.0,0.0,0.0,0.0,0.0
54,0.0,30.0,0.0,0.0,0.0,0.0
55,0.0,30.0,0.0,0.0,0.0,0.0
56,0.0,30.0,0.0,0.0,0.0,0.0
57,0.0,30.0,0.0,0.0,0.0,0.0
58,0.0,29.0,0.0,0.0,0.0,0.0
59,0.0,29.0,0.0,0.0,0.0,0.0
60,0.0,28.0,0.0,0.0,0.0,0.0
61,0.0,28.0,0.0,0.0,0.0,0.0
62,0.0,36.0,0.0,0.0,0.0,0.0
63,0.0,36.0,0.0,0.0,0.0,0.0
64,0.0,36.0,0.0,0.0,0.0,0.0
65,0.0,36.0,0.0,0.0,0.0,0.0
66,0.0,35.0,0.0,0.0,0.0,0.0
67,0.0,35.0,0.0,0.0,0.0,0.0
68,0.0,33.0,0.0,0.0,0.0,0.0
69,0.0,33.0,0.0,0.0,0.0,0.0
70,0.0,33.0,0.0,0.0,0.0,0.0
71,0.0,33.0,0.0,0.0,0.0,0.0
72,0.0,31.0,0.0,0.0,0.0,0.0
73,0.0,31.0,0.0,0.0,0.0,0.0
74,0.0,31.0,0.0,0.0,0.0,0.0
75,0.0,31.0,0.0,0.0,0.0,0.0
76,0.0,28.0,0.0,0.0,0.0,0.0
77,0.0,28.0,0.0,0.0,0.0,0.0
78,0.0,28.0,0.0,0.0,0.0,0.0
79,0.0,28.0,0.0,0.0,0.0,0.0
80,0.0,28.0,0.0,0.0,0.0,0.0
81,0.0,28.0,0.0,0.0,0.0,0.0
82,0.0,26.0,0.0,0.0,0.0,0.0
83,0.0,26.0,0.0,0.0,0.0,0.0
84,0.0,25.0,0.0,0.0,0.0,0.0
85,0.0,25.0,0.0,0.0,0.0,0.0
86,0.0,25.0,0.0,0.0,0.0,0.0
87,0.0,25.0,0.0,0.0,0.0,0.0
88,0.0,27.0,0.0,0.0,0.0,0.0
89,0.0,27.0,0.0,0.0,0.0,0.0
90,0.0,26.0,0.0,0.0,0.0,0.0
91,0.0,26.0,0.0,0.0,0.0,0.0
92,0.0,25.0,0.0,0.0,0.0,0.0
93,0.0,25.0,0.0,0.0,0.0,0.0
94,0.0,25.0,0.0,0.0,0.0,0.0
95,0.0,25.0,0.0,0.0,0.0,0.0
96,0.0,29.0,0.0,0.0,0.0,0.0
97,0.0,29.0,0.0,0.0,0.0,0.0
98,0.0,29.0,0.0,0.0,0.0,0.0
99,0.0,29.0,0.0,0.0,0.0,0.0
100,0.0,28.0,0.0,0.0,0.0,0.0
101,0.0,28.0,0.0,0.0,0.0,0.0
102,16684.5,32.0,0.0,0.0,0.0,0.0
103,16684.5,32.0,0.0,0.0,0.0,0.0
104,16350.810000000076,32.0,0.0,0.0,0.0,0.0
105,16350.810000000076,32.0,0.0,0.0,0.0,0.0
106,16023.793800000016,30.0,0.0,0.0,0.0,0.0
107,16023.793800000016,30.0,0.0,0.0,0.0,0.0
108,15703.317924000039,29.0,0.0,0.0,0.0,0.0
109,15703.317924000039,29.0,0.0,0.0,0.0,0.0
110,15389.251565520042,28.0,0.0,0.0,0.0,0.0
111,15389.251565520042,28.0,0.0,0.0,0.0,0.0
112,15081.466534209601,27.0,0.0,0.0,0.0,0.0
113,15081.466534209601,27.0,0.0,0.0,0.0,0.0
114,14779.837203525347,26.0,0.0,0.0,0.0,0.0
115,14779.837203525347,26.0,0.0,0.0,0.0,0.0
116,14484.24045945496,30.0,2.0,0.099,0.0,9.399999999999999
117,14484.24045945496,30.0,2.0,0.099,0.0,9.399999999999999
118,14194.555650265725,27.0,3.0,0.2462046633851523,0.0,15.832183206106876
119,14194.555650265725,27.0,3.0,0.2462046633851523,0.0,15.832183206106876
120,13910.66453726048,26.0,4.0,0.44122499186501707,8.84030516169442,22.817407180081915
121,13910.66453726048,26.0,4.0,0.44122499186501707,8.84030516169442,22.817407180081915
122,13632.451246515211,24.0,5.0,0.6834909587325001,17.49413290837267,30.336554309637524
123,13632.451246515211,24.0,5.0,0.6834909587325001,17.49413290837267,30.336554309637524
124,13359.802221585018,23.0,6.0,0.9725549594245181,17.319191579288947,38.12039066307634
125,13359.802221585018,23.0,6.0,0.9725549594245181,17.319191579288947,38.12039066307634
126,13092.606177153231,22.0,7.0,1.307770782322482,25.757383441620952,44.260024539360565
127,13092.606177153231,22.0,7.0,1.307770782322482,25.757383441620952,44.260024539360565
128,12830.754053610264,19.0,8.0,1.689103234147138,34.17816590519729,52.801156935204645
129,12830.754053610264,19.0,8.0,1.689103234147138,34.17816590519729,52.801156935204645
130,12574.13897253795,19.0,8.0,2.0660915267284596,33.83638424614527,56.03310089165838
131,12574.13897253795,19.0,8.0,2.0660915267284596,33.83638424614527,56.03310089165838
132,12322.656193087209,18.0,9.0,2.488477292622745,43.464620949198554,62.97484495134408
133,12322.656193087209,18.0,9.0,2.488477292622745,43.464620949198554,62.97484495134408
134,12076.20306922544,16.0,9.0,2.906558799811318,43.02997473970678,65.82364280253815
135,12076.20306922544,16.0,9.0,2.906558799811318,43.02997473970678,65.82364280253815
136,11834.679007840949,16.0,9.0,3.3200501048870605,51.44301538602042,67.62506292041344
137,11834.679007840949,16.0,9.0,3.3200501048870605,51.44301538602042,67.62506292041344
138,11597.985427684116,16.0,9.0,3.7297099183352893,50.92858523216014,70.11535592386068
139,11597.985427684116,16.0,9.0,3.7297099183352893,50.92858523216014,70.11535592386068
140,11366.025719130444,16.0,9.0,4.134785682087043,50.41929937983855,71.30313975711692
141,11366.025719130444,16.0,9.0,4.134785682087043,50.41929937983855,71.30313975711692
142,11138.705204747777,14.0,9.0,4.535998412296333,58.52693640177431,72.64654008332592
143,11138.705204747777,14.0,9.0,4.535998412296333,58.52693640177431,72.64654008332592
144,10915.93110065285,13.0,10.0,4.982648964494004,57.94166703775684,78.25646404931541
145,10915.93110065285,13.0,10.0,4.982648964494004,57.94166703775684,78.25646404931541
146,10697.612478639801,12.0,11.0,5.4743045358319,57.36225036737888,84.60054319255765
147,10697.612478639801,12.0,11.0,5.4743045358319,57.36225036737888,84.60054319255765
148,10483.66022906696,12.0,11.0,5.96111916426414,65.39986652623635,88.42931683331147
149,10483.66022906696,12.0,11.0,5.96111916426414,65.39986652623635,88.42931683331147
150,10273.987024485696,9.0,11.0,6.442348818261707,82.36029785969822,90.19533552212832
151,10273.987024485696,9.0,11.0,6.442348818261707,82.36029785969822,90.19533552212832
152,10068.507283995901,9.0,11.0,6.91873797287238,81.5366948811013,91.57321432976224
153,10068.507283995901,9.0,11.0,6.91873797287238,81.5366948811013,91.57321432976224
154,9867.13713831595,8.0,12.0,7.439451690486806,80.72132793228992,96.26829165577806
155,9867.13713831595,8.0,12.0,7.439451690486806,80.72132793228992,96.26829165577806
156,9669.79439554974,13.0,13.0,8.004381723504963,89.02246024651438,101.54762652535587
157,9669.79439554974,13.0,13.0,8.004381723504963,89.02246024651438,101.54762652535587
158,9476.398507638693,12.0,13.0,8.562398987222661,88.13223564404882,102.18104522793014
159,9476.398507638693,12.0,13.0,8.562398987222661,88.13223564404882,102.18104522793014
160,9286.870537485856,11.0,12.0,9.065935265333158,87.25091328760865,102.35852485547275
161,9286.870537485856,11.0,12.0,9.065935265333158,87.25091328760865,102.35852485547275
162,9101.133126736258,10.0,13.0,9.613887035014875,86.37840415473265,107.47813465452548
163,9101.133126736258,10.0,13.0,9.613887035014875,86.37840415473265,107.47813465452548
164,8919.110464201522,8.0,14.0,10.20530577332059,94.16633219465321,112.28581179610674
165,8919.110464201522,8.0,14.0,10.20530577332059,94.16633219465321,112.28581179610674
166,8740.728254917534,7.0,14.0,10.789937598481073,93.22466887270622,113.37814271672733
167,8740.728254917534,7.0,14.0,10.789937598481073,93.22466887270622,113.37814271672733
168,8565.913689819085,7.0,14.0,11.36790678897231,92.29242218397938,113.08993515403523
169,8565.913689819085,7.0,14.0,11.36790678897231,92.29242218397938,113.08993515403523
170,8394.59541602262,6.0,15.0,11.98852268375643,91.36949796213936,116.51475780059138
171,8394.59541602262,6.0,15.0,11.98852268375643,91.36949796213936,116.51475780059138
172,8226.703507702312,6.0,15.0,12.6020154515153,90.4558029825183,116.53032073427259
173,8226.703507702312,6.0,15.0,12.6020154515153,90.4558029825183,116.53032073427259
174,8062.169437548314,6.0,14.0,13.159813671818936,89.55124495269274,115.10270235699058
175,8062.169437548314,6.0,14.0,13.159813671818936,89.55124495269274,115.10270235699058
176,7900.926048797258,5.0,14.0,13.710816149232718,88.65573250316613,113.48867299676334
177,7900.926048797258,5.0,14.0,13.710816149232718,88.65573250316613,113.48867299676334
178,7742.907527821334,4.0,14.0,14.254037371318516,87.76917517813399,111.22607801461528
179,7742.907527821334,4.0,14.0,14.254037371318516,87.76917517813399,111.22607801461528
180,7588.049377264923,4.0,14.0,14.790094195361533,86.89148342635318,108.79379751034323
181,7588.049377264923,4.0,14.0,14.790094195361533,86.89148342635318,108.79379751034323
182,7436.288389719652,4.0,13.0,15.267790912207426,86.02256859208956,106.05199209769087
183,7436.288389719652,4.0,13.0,15.267790912207426,86.02256859208956,106.05199209769087
184,7287.562621925325,4.0,12.0,15.689188400618491,85.16234290616858,102.61828069931988
185,7287.562621925325,4.0,12.0,15.689188400618491,85.16234290616858,102.61828069931988
186,7141.811369486697,3.0,12.0,16.10651786988523,84.31071947710747,103.76782300875176
187,7141.811369486697,3.0,12.0,16.10651786988523,84.31071947710747,103.76782300875176
188,6998.975142097032,3.0,12.0,16.52333706965116,83.46761228233548,102.30700128836462
189,6998.975142097032,3.0,12.0,16.52333706965116,83.46761228233548,102.30700128836462
190,6858.995639255063,3.0,12.0,16.928345242020985,82.6329361595125,99.62969170621206
191,6858.995639255063,3.0,12.0,16.928345242020985,82.6329361595125,99.62969170621206
192,6721.8157264699485,3.0,12.0,17.32679840943649,81.806606797918,97.04699845521532
193,6721.8157264699485,3.0,12.0,17.32679840943649,81.806606797918,97.04699845521532
194,6587.379411940496,2.0,13.0,17.775697453683698,80.98854072993846,95.92856606452575
195,6587.379411940496,2.0,13.0,17.775697453683698,80.98854072993846,95.92856606452575
196,6455.631823701676,2.0,13.0,18.218432763804145,80.1786553226394,94.12715277136401
197,6455.631823701676,2.0,13.0,18.218432763804145,80.1786553226394,94.12715277136401
198,6326.519187227659,1.0,12.0,18.609828099802943,79.37686876941275,92.2247645373227
199,6326.519187227659,1.0,12.0,18.609828099802943,79.37686876941275,92.2247645373227
200,6199.9888034831065,1.0,12.0,19.00074696193253,78.58310008171853,90.16079947215721
201,6199.9888034831065,1.0,12.0,19.00074696193253,78.58310008171853,90.16079947215721
202,6075.989027413509,1.0,12.0,19.389111361428668,77.79726908090109,88.0911144935986
203,6075.989027413509,1.0,12.0,19.389111361428668,77.79726908090109,88.0911144935986
204,5954.469246865244,1.0,12.0,19.771264972809792,85.62496087850101,86.31193273259366
205,5954.469246865244,1.0,12.0,19.771264972809792,85.62496087850101,86.31193273259366
206,5835.379861927955,1.0,12.0,20.148264504052463,84.76871126971538,84.17842417550631
207,5835.379861927955,1.0,12.0,20.148264504052463,84.76871126971538,84.17842417550631
208,5718.672264689431,1.0,12.0,20.520591578675138,83.92102415701888,81.94941313557553
209,5718.672264689431,1.0,12.0,20.520591578675138,83.92102415701888,81.94941313557553
210,5604.298819395599,1.0,12.0,20.892158800246353,83.08181391544886,79.88837357237878
211,5604.298819395599,1.0,12.0,20.892158800246353,83.08181391544886,79.88837357237878
212,5492.212843007667,2.0,11.0,21.213284423961788,82.25099577629432,77.75029773268122
213,5492.212843007667,2.0,11.0,21.213284423961788,82.25099577629432,77.75029773268122
214,5382.368586147576,2.0,11.0,21.530487938738137,81.42848581853167,75.58573441593336
215,5382.368586147576,2.0,11.0,21.530487938738137,81.42848581853167,75.58573441593336
216,5274.721214424538,1.0,12.0,21.893891138072995,80.61420096034595,78.05092014023009
217,5274.721214424538,1.0,12.0,21.893891138072995,80.61420096034595,78.05092014023009
218,5169.226790136051,5.0,12.0,22.25351894545836,79.80805895074232,77.49806667966041
219,5169.226790136051,5.0,12.0,22.25351894545836,79.80805895074232,77.49806667966041
220,5065.8422543333645,4.0,13.0,22.65570003708187,88.62010926511881,78.09979005342298
221,5065.8422543333645,4.0,13.0,22.65570003708187,88.62010926511881,78.09979005342298
222,4964.5254092466885,4.0,12.0,23.00868349287013,87.7339081724673,77.5305464014038
223,4964.5254092466885,4.0,12.0,23.00868349287013,87.7339081724673,77.5305464014038
224,4865.234901061752,3.0,13.0,23.4071440266064,86.85656909074302,78.72703841877575
225,4865.234901061752,3.0,13.0,23.4071440266064,86.85656909074302,78.72703841877575
226,4767.930203040504,2.0,13.0,23.802069241015662,85.98800339983501,81.19021948529746
227,4767.930203040504,2.0,13.0,23.802069241015662,85.98800339983501,81.19021948529746
228,4672.571598979671,2.0,13.0,24.19272410354035,85.12812336583693,81.09763052776341
229,4672.571598979671,2.0,13.0,24.19272410354035,85.12812336583693,81.09763052776341
230,4579.12016700009,2.0,13.0,24.57791263752529,84.27684213217921,80.41139211048079
231,4579.12016700009,2.0,13.0,24.57791263752529,84.27684213217921,80.41139211048079
232,4487.537763660156,1.0,13.0,24.960170551946828,83.43407371085718,81.63404592454202
233,4487.537763660156,1.0,13.0,24.960170551946828,83.43407371085718,81.63404592454202
234,4397.787008386903,1.0,12.0,25.286388499059278,82.59973297374857,80.50025533198534
235,4397.787008386903,1.0,12.0,25.286388499059278,82.59973297374857,80.50025533198534
236,4309.83126821922,1.0,12.0,25.60828515408571,81.77373564401071,79.17708858783594
237,4309.83126821922,1.0,12.0,25.60828515408571,81.77373564401071,79.17708858783594
238,4223.634642854723,1.0,12.0,25.922448891733627,80.95599828757055,77.99008491549598
239,4223.634642854723,1.0,12.0,25.922448891733627,80.95599828757055,77.99008491549598
240,4139.1619499976405,1.0,12.0,26.238582290442103,80.14643830469494,76.7563079935866
241,4139.1619499976405,1.0,12.0,26.238582290442103,80.14643830469494,76.7563079935866
242,4056.378710997736,1.0,12.0,26.54986754315744,79.34497392164754,75.20827014701625
243,4056.378710997736,1.0,12.0,26.54986754315744,79.34497392164754,75.20827014701625
244,3975.251136777758,1.0,12.0,26.857564918295644,78.55152418243182,73.79999094023655
245,3975.251136777758,1.0,12.0,26.857564918295644,78.55152418243182,73.79999094023655
246,3895.746114042232,1.0,12.0,27.16184272521569,77.76600894060724,72.48052035661283
247,3895.746114042232,1.0,12.0,27.16184272521569,77.76600894060724,72.48052035661283
248,3817.831191761364,8.0,12.0,27.461284901446398,76.98834885120127,74.50473578567272
249,3817.831191761364,8.0,12.0,27.461284901446398,76.98834885120127,74.50473578567272
250,3741.474567926142,7.0,13.0,27.808142019045675,85.06244398345864,75.21572111367436
251,3741.474567926142,7.0,13.0,27.808142019045675,85.06244398345864,75.21572111367436
252,3666.6450765676295,6.0,14.0,28.199524684293234,93.01872759232222,79.203242645524
253,3666.6450765676295,6.0,14.0,28.199524684293234,93.01872759232222,79.203242645524
254,3593.3121750362575,5.0,14.0,28.589719543905666,92.08854031639912,83.73694738370757
255,3593.3121750362575,5.0,14.0,28.589719543905666,92.08854031639912,83.73694738370757
256,3521.44593153555,5.0,14.0,28.976432766834147,91.16765491323532,84.59775500164102
257,3521.44593153555,5.0,14.0,28.976432766834147,91.16765491323532,84.59775500164102
258,3451.0170129048433,5.0,14.0,29.358970413482886,90.25597836410314,84.53172827268156
259,3451.0170129048433,5.0,14.0,29.358970413482886,90.25597836410314,84.53172827268156
260,3381.99667264673,5.0,14.0,29.739370748369417,89.35341858046243,83.96818878334047
261,3381.99667264673,5.0,14.0,29.739370748369417,89.35341858046243,83.96818878334047
262,3314.356739193793,5.0,14.0,30.109848808031735,88.45988439465695,82.96684000850286
263,3314.356739193793,5.0,14.0,30.109848808031735,88.45988439465695,82.96684000850286
264,3248.069604409945,5.0,13.0,30.43118941974765,87.57528555071046,81.7118367378389
265,3248.069604409945,5.0,13.0,30.43118941974765,87.57528555071046,81.7118367378389
266,3183.1082123217184,4.0,14.0,30.800810876078895,86.6995326952032,82.96067556793139
267,3183.1082123217184,4.0,14.0,30.800810876078895,86.6995326952032,82.96067556793139
268,3119.446048075294,6.0,15.0,31.220603657654628,85.83253736825164,85.68391507439823
269,3119.446048075294,6.0,15.0,31.220603657654628,85.83253736825164,85.68391507439823
270,3057.0571271138283,6.0,15.0,31.63628984090687,84.97421199456886,86.4128670464535
271,3057.0571271138283,6.0,15.0,31.63628984090687,84.97421199456886,86.4128670464535
272,2995.9159845715244,6.0,15.0,32.04467960632395,84.12446987462302,86.03032581212672
273,2995.9159845715244,6.0,15.0,32.04467960632395,84.12446987462302,86.03032581212672
274,2935.9976648800957,6.0,14.0,32.40268439831385,83.28322517587682,85.27688760838667
275,2935.9976648800957,6.0,14.0,32.40268439831385,83.28322517587682,85.27688760838667
276,2877.27771158246,6.0,14.0,32.758405200408355,82.4503929241181,84.57460975732782
277,2877.27771158246,6.0,14.0,32.758405200408355,82.4503929241181,84.57460975732782
278,2819.7321573508475,6.0,14.0,33.110076082465845,81.62588899487636,83.53564437589061
279,2819.7321573508475,6.0,14.0,33.110076082465845,81.62588899487636,83.53564437589061
280,2763.337514203794,6.0,14.0,33.45804781109828,80.80963010492829,82.62986671882028
281,2763.337514203794,6.0,14.0,33.45804781109828,80.80963010492829,82.62986671882028
282,2708.070763919775,15.0,19.0,34.0481990043731,80.00153380387886,89.77704016724243
283,2708.070763919775,15.0,19.0,34.0481990043731,80.00153380387886,89.77704016724243
284,2653.9093486413462,14.0,20.0,34.680370626786384,79.20151846584022,92.54012738021481
285,2653.9093486413462,14.0,20.0,34.680370626786384,79.20151846584022,92.54012738021481
286,2600.8311616685196,13.0,21.0,35.35394149609859,78.40950328118163,95.87629382473654
287,2600.8311616685196,13.0,21.0,35.35394149609859,78.40950328118163,95.87629382473654
288,2548.814538435144,12.0,22.0,36.0670286642576,96.25380856277275,101.45936044193667
289,2548.814538435144,12.0,22.0,36.0670286642576,96.25380856277275,101.45936044193667
290,2497.8382476664688,12.0,22.0,36.77338801142248,95.29127047714503,102.4295697743518
291,2497.8382476664688,12.0,22.0,36.77338801142248,95.29127047714503,102.4295697743518
292,2447.881482713103,12.0,21.0,37.42471192770563,94.33835777237384,102.92641482226543
293,2447.881482713103,12.0,21.0,37.42471192770563,94.33835777237384,102.92641482226543
294,2398.9238530588564,11.0,22.0,38.119197690849205,93.39497419465003,107.16725221421373
295,2398.9238530588564,11.0,22.0,38.119197690849205,93.39497419465003,107.16725221421373
296,2350.945375997651,11.0,23.0,38.85619667073187,92.4610244527041,112.14496557447518
297,2350.945375997651,11.0,23.0,38.85619667073187,92.4610244527041,112.14496557447518
298,2303.9264684777304,11.0,23.0,39.584825715490375,91.53641420817706,113.89716578132008
299,2303.9264684777304,11.0,23.0,39.584825715490375,91.53641420817706,113.89716578132008
300,2257.8479391081964,11.0,22.0,40.258138611101295,90.6210500660956,114.66308331583228
301,2257.8479391081964,11.0,22.0,40.258138611101295,90.6210500660956,114.66308331583228
302,2212.6909803260082,9.0,24.0,41.02314394378418,89.71483956543382,120.20108684405531
303,2212.6909803260082,9.0,24.0,41.02314394378418,89.71483956543382,120.20108684405531
304,2168.4371607194757,8.0,24.0,41.779240890367475,106.63982774470624,121.67547827315748
305,2168.4371607194757,8.0,24.0,41.779240890367475,106.63982774470624,121.67547827315748
306,2125.0684175050733,8.0,24.0,42.52753830184295,105.57342946725947,123.3106255398291
307,2125.0684175050733,8.0,24.0,42.52753830184295,105.57342946725947,123.3106255398291
308,2082.5670491549904,8.0,24.0,43.26744632105988,104.51769517258748,123.75892227624979
309,2082.5670491549904,8.0,24.0,43.26744632105988,104.51769517258748,123.75892227624979
310,2040.9157081718809,8.0,24.0,43.99830752898137,103.47251822086132,123.69026955109744
311,2040.9157081718809,8.0,24.0,43.99830752898137,103.47251822086132,123.69026955109744
312,2000.097394008452,7.0,24.0,44.72215194576598,102.43779303865136,126.51156785335576
313,2000.097394008452,7.0,24.0,44.72215194576598,102.43779303865136,126.51156785335576
314,1960.0954461283075,6.0,25.0,45.48684748375121,101.4134151082651,129.9199066019237
315,1960.0954461283075,6.0,25.0,45.48684748375121,101.4134151082651,129.9199066019237
316,1920.8935372057338,5.0,26.0,46.29159694709007,100.39928095718332,133.11742127199932
317,1920.8935372057338,5.0,26.0,46.29159694709007,100.39928095718332,133.11742127199932
318,1882.4756664616045,5.0,26.0,47.08709514930571,99.39528814761124,134.21290023206228
319,1882.4756664616045,5.0,26.0,47.08709514930571,99.39528814761124,134.21290023206228
320,1844.8261531323926,3.0,28.0,47.96884781231693,107.10014072639682,138.39243647361667
321,1844.8261531323926,3.0,28.0,47.96884781231693,107.10014072639682,138.39243647361667
322,1807.9296300697263,3.0,28.0,48.84119640596234,114.94498859390941,139.670574547853
323,1807.9296300697263,3.0,28.0,48.84119640596234,114.94498859390941,139.670574547853
324,1771.7710374683363,3.0,28.0,49.70088275994473,113.79553870797092,140.03263158698107
325,1771.7710374683363,3.0,28.0,49.70088275994473,113.79553870797092,140.03263158698107
326,1736.335616718974,2.0,29.0,50.59590876866598,112.657583320891,142.04311867638495
327,1736.335616718974,2.0,29.0,50.59590876866598,112.657583320891,142.04311867638495
328,1701.6089043846043,2.0,29.0,51.48527378126852,111.53100748768189,143.97210378734374
329,1701.6089043846043,2.0,29.0,51.48527378126852,111.53100748768189,143.97210378734374
330,1667.5767262969046,1.0,30.0,52.41642765246784,110.41569741280455,144.8151829790133
331,1667.5767262969046,1.0,30.0,52.41642765246784,110.41569741280455,144.8151829790133
332,1634.2251917709361,1.0,30.0,53.329416730123704,109.31154043867701,144.63132381670593
333,1634.2251917709361,1.0,30.0,53.329416730123704,109.31154043867701,144.63132381670593
334,1601.5406879355241,0.0,31.0,54.28222273019766,108.21842503429005,147.62299877277601
335,1601.5406879355241,0.0,31.0,54.28222273019766,108.21842503429005,147.62299877277601
336,1569.5098741768313,0.0,31.0,55.2248017737279,107.13624078394731,148.1861394036827
337,1569.5098741768313,0.0,31.0,55.2248017737279,107.13624078394731,148.1861394036827
338,1538.1196766933008,0.0,31.0,56.15567814416995,106.06487837610773,147.82263866470979
339,1538.1196766933008,0.0,31.0,56.15567814416995,106.06487837610773,147.82263866470979
340,1507.3572831594006,0.0,31.0,57.07314434815477,113.63809577915863,146.68291670751935
341,1507.3572831594006,0.0,31.0,57.07314434815477,113.63809577915863,146.68291670751935
342,1477.2101374962251,0.0,31.0,57.977085215012224,112.50171482136692,145.43039129422735
343,1477.2101374962251,0.0,31.0,57.977085215012224,112.50171482136692,145.43039129422735
344,1447.6659347462967,0.0,31.0,58.869881461155025,111.37669767315346,143.96406982275474
345,1447.6659347462967,0.0,31.0,58.869881461155025,111.37669767315346,143.96406982275474
346,1418.7126160513976,0.0,31.0,59.74567030862815,110.26293069642227,142.04960260154863
347,1418.7126160513976,0.0,31.0,59.74567030862815,110.26293069642227,142.04960260154863
348,1390.3383637303575,0.0,31.0,60.60750598773688,109.16030138945858,140.2110568928953
349,1390.3383637303575,0.0,31.0,60.60750598773688,109.16030138945858,140.2110568928953
350,1362.5315964557408,0.0,30.0,61.41163451452506,108.06869837556289,137.76769514691645
351,1362.5315964557408,0.0,30.0,61.41163451452506,108.06869837556289,137.76769514691645
352,1335.280964526633,0.0,30.0,62.203582935616744,106.98801139180695,135.19348413964315
353,1335.280964526633,0.0,30.0,62.203582935616744,106.98801139180695,135.19348413964315
354,1308.5753452361096,0.0,29.0,62.93494397486627,105.9181312778898,132.56119922827583
355,1308.5753452361096,0.0,29.0,62.93494397486627,105.9181312778898,132.56119922827583
356,1282.4038383313896,0.0,28.0,63.603246080392594,104.85894996511057,129.454553235783
357,1282.4038383313896,0.0,28.0,63.603246080392594,104.85894996511057,129.454553235783
358,1256.7557615647586,0.0,28.0,64.25650646997947,103.81036046545957,126.23650175877718
359,1256.7557615647586,0.0,28.0,64.25650646997947,103.81036046545957,126.23650175877718
360,1231.6206463334554,0.0,28.0,64.90033161877707,102.7722568608054,123.30777548728977
361,1231.6206463334554,0.0,28.0,64.90033161877707,102.7722568608054,123.30777548728977
362,1206.988233406804,0.0,27.0,65.49259852270617,101.7445342921969,120.0079967097117
363,1206.988233406804,0.0,27.0,65.49259852270617,101.7445342921969,120.0079967097117
364,1182.8484687386547,0.0,26.0,66.03689841474879,100.72708894927419,116.8783546169822
365,1182.8484687386547,0.0,26.0,66.03689841474879,100.72708894927419,116.8783546169822
366,1159.1914993639039,0.0,25.0,66.52888476524987,99.71981805978193,113.72307096577718
367,1159.1914993639039,0.0,25.0,66.52888476524987,99.71981805978193,113.72307096577718
368,1136.0076693765932,0.0,24.0,66.96864276343501,98.72261987918449,110.7236370068465
369,1136.0076693765932,0.0,24.0,66.96864276343501,98.72261987918449,110.7236370068465
370,1113.2875159890443,0.0,23.0,67.35130219919606,97.73539368039238,107.54585484311086
371,1113.2875159890443,0.0,23.0,67.35130219919606,97.73539368039238,107.54585484311086
372,1091.0217656692912,0.0,20.0,67.60348565361116,96.75803974358838,104.2489410377857
373,1091.0217656692912,0.0,20.0,67.60348565361116,96.75803974358838,104.2489410377857
374,1069.2013303559145,0.0,20.0,67.8463375977904,95.79045934615282,101.0285517806332
375,1069.2013303559145,0.0,20.0,67.8463375977904,95.79045934615282,101.0285517806332
376,1047.8173037487904,0.0,20.0,68.08986874510718,94.83255475269098,97.90918174343521
377,1047.8173037487904,0.0,20.0,68.08986874510718,94.83255475269098,97.90918174343521
378,1026.860957673811,0.0,20.0,68.33473423085732,93.88422920516467,94.84823188261494
379,1026.860957673811,0.0,20.0,68.33473423085732,93.88422920516467,94.84823188261494
380,1006.3237385203354,0.0,20.0,68.57571123130822,92.94538691311249,91.8914929397668
381,1006.3237385203354,0.0,20.0,68.57571123130822,92.94538691311249,91.8914929397668
382,986.1972637499236,0.0,20.0,68.81261181861687,92.01593304398168,88.85990635840164
383,986.1972637499236,0.0,20.0,68.81261181861687,92.01593304398168,88.85990635840164
384,966.4733184749116,0.0,18.0,68.9587988632824,91.09577371354148,85.89769805332362
385,966.4733184749116,0.0,18.0,68.9587988632824,91.09577371354148,85.89769805332362
386,947.1438521054239,0.0,18.0,69.09870478159361,90.18481597640638,83.05443589125146
387,947.1438521054239,0.0,18.0,69.09870478159361,90.18481597640638,83.05443589125146
388,928.2009750633313,0.0,18.0,69.23074998431065,89.28296781664194,80.256010788069
389,928.2009750633313,0.0,18.0,69.23074998431065,89.28296781664194,80.256010788069
390,909.6369555620624,0.0,17.0,69.36380903836512,88.39013813847579,77.5984790510751
391,909.6369555620624,0.0,17.0,69.36380903836512,88.39013813847579,77.5984790510751
392,891.4442164508093,0.0,16.0,69.40190443988483,87.50623675709139,74.59026163682006
393,891.4442164508093,0.0,16.0,69.40190443988483,87.50623675709139,74.59026163682006
394,873.6153321217861,0.0,15.0,69.39720096551136,86.63117438952014,71.72309171760959
395,873.6153321217861,0.0,15.0,69.39720096551136,86.63117438952014,71.72309171760959
396,856.1430254793607,0.0,13.0,69.29942470472349,85.76486264562503,68.86135213239304
397,856.1430254793607,0.0,13.0,69.29942470472349,85.76486264562503,68.86135213239304
398,839.0201649697706,0.0,13.0,69.20822382892929,84.90721401916907,66.16443244053498
399,839.0201649697706,0.0,13.0,69.20822382892929,84.90721401916907,66.16443244053498
400,822.2397616703753,0.0,13.0,69.11841606463892,84.05814187897708,63.56083708451648
401,822.2397616703753,0.0,13.0,69.11841606463892,84.05814187897708,63.56083708451648
402,805.7949664369745,0.0,11.0,68.93701185862348,83.21756046018744,60.875810196830514
403,805.7949664369745,0.0,11.0,68.93701185862348,83.21756046018744,60.875810196830514
404,789.6790671082324,3.0,11.0,68.75381544211064,82.3853848555849,59.01160954783267
405,789.6790671082324,3.0,11.0,68.75381544211064,82.3853848555849,59.01160954783267
406,773.8854857660676,3.0,11.0,68.57727006251952,81.56153100702899,56.99235659849867
407,773.8854857660676,3.0,11.0,68.57727006251952,81.56153100702899,56.99235659849867
408,758.4077760507566,3.0,10.0,68.35955104385694,80.74591569695939,54.917108973620905
409,758.4077760507566,3.0,10.0,68.35955104385694,80.74591569695939,54.917108973620905
410,743.2396205297302,3.0,9.0,68.09132160633906,79.93845653998919,52.69974161735112
411,743.2396205297302,3.0,9.0,68.09132160633906,79.93845653998919,52.69974161735112
412,728.3748281191291,3.0,9.0,67.82868862902791,79.13907197458977,50.62097322904455
413,728.3748281191291,3.0,9.0,67.82868862902791,79.13907197458977,50.62097322904455
414,713.8073315567505,3.0,9.0,67.56552167460151,78.34768125484425,48.55926171515284
415,713.8073315567505,3.0,9.0,67.56552167460151,78.34768125484425,48.55926171515284
416,699.5311849256133,3.0,7.0,67.21437704597065,77.56420444229515,46.41218404176627
417,699.5311849256133,3.0,7.0,67.21437704597065,77.56420444229515,46.41218404176627
418,685.540561227096,3.0,6.0,66.82309717788546,76.78856239787228,44.3224225250618
419,685.540561227096,3.0,6.0,66.82309717788546,76.78856239787228,44.3224225250618
420,671.8297500025543,3.0,6.0,66.4386175058552,76.02067677389373,42.4510080312876
421,671.8297500025543,3.0,6.0,66.4386175058552,76.02067677389373,42.4510080312876
422,658.3931550025163,6.0,6.0,66.05778160372991,75.26047000615524,40.706820870969445
423,658.3931550025163,6.0,6.0,66.05778160372991,75.26047000615524,40.706820870969445
424,645.2252919024667,6.0,6.0,65.68357514022995,74.50786530609268,39.20696837975893
425,645.2252919024667,6.0,6.0,65.68357514022995,74.50786530609268,39.20696837975893
426,632.3207860644134,6.0,6.0,65.31216535469248,73.76278665303272,37.6856028266615
427,632.3207860644134,6.0,6.0,65.31216535469248,73.76278665303272,37.6856028266615
428,619.6743703431227,6.0,5.0,64.89662055122868,73.02515878650239,36.103592486607226
429,619.6743703431227,6.0,5.0,64.89662055122868,73.02515878650239,36.103592486607226
430,607.2808829362634,6.0,4.0,64.43733862599997,72.29490719863686,34.424467828208094
431,607.2808829362634,6.0,4.0,64.43733862599997,72.29490719863686,34.424467828208094
432,595.1352652775294,5.0,5.0,64.03294159698387,71.57195812665081,35.07150618955642
433,595.1352652775294,5.0,5.0,64.03294159698387,71.57195812665081,35.07150618955642
434,583.2325599719903,5.0,4.0,63.58363752821467,70.85623854538407,34.17308900022015
435,583.2325599719903,5.0,4.0,63.58363752821467,70.85623854538407,34.17308900022015
436,571.5679087725498,5.0,4.0,63.14042545485324,70.1476761599302,33.36671685072193
437,571.5679087725498,5.0,4.0,63.14042545485324,70.1476761599302,33.36671685072193
438,560.1365505970925,5.0,4.0,62.70117875819936,69.44619939833059,32.471872284583014
439,560.1365505970925,5.0,4.0,62.70117875819936,69.44619939833059,32.471872284583014
440,548.9338195851465,5.0,4.0,62.266102442338386,68.75173740434731,31.480593837338166
441,548.9338195851465,5.0,4.0,62.266102442338386,68.75173740434731,31.480593837338166
442,537.9551431934553,5.0,4.0,61.83508317538112,68.06422003030382,30.48901097647762
443,537.9551431934553,5.0,4.0,61.83508317538112,68.06422003030382,30.48901097647762
444,527.1960403295798,5.0,4.0,61.40815594071619,67.38357783000087,29.482549435877413
445,527.1960403295798,5.0,4.0,61.40815594071619,67.38357783000087,29.482549435877413
446,516.6521195229955,5.0,4.0,60.9854831705074,66.70974205170143,28.511113173534923
447,516.6521195229955,5.0,4.0,60.9854831705074,66.70974205170143,28.511113173534923
448,506.31907713252866,5.0,4.0,60.56674476337376,66.04264463118376,27.681385138431818
449,506.31907713252866,5.0,4.0,60.56674476337376,66.04264463118376,27.681385138431818
450,496.1926955898773,4.0,4.0,60.154015653279444,65.38221818487224,28.7659914796192
451,496.1926955898773,4.0,4.0,60.154015653279444,65.38221818487224,28.7659914796192
452,486.26884167808646,3.0,5.0,59.79543802925529,64.72839600302322,29.840188307578572
453,486.26884167808646,3.0,5.0,59.79543802925529,64.72839600302322,29.840188307578572
454,476.5434648445199,3.0,5.0,59.44020333153573,64.08111204299283,30.589257873781406
455,476.5434648445199,3.0,5.0,59.44020333153573,64.08111204299283,30.589257873781406
456,467.0125955476257,3.0,5.0,59.08777499593119,63.44030092256351,30.528425190453795
457,467.0125955476257,3.0,5.0,59.08777499593119,63.44030092256351,30.528425190453795
458,457.67234363667546,3.0,5.0,58.738906824669435,62.80589791333729,30.394059195582646
459,457.67234363667546,3.0,5.0,58.738906824669435,62.80589791333729,30.394059195582646
460,448.5188967639464,7.0,6.0,58.44245208111224,62.17783893420423,32.0219323713127
461,448.5188967639464,7.0,6.0,58.44245208111224,62.17783893420423,32.0219323713127
462,439.5485188286636,7.0,6.0,58.14879279493514,61.556060544862355,32.7064737663267
463,439.5485188286636,7.0,6.0,58.14879279493514,61.556060544862355,32.7064737663267
464,430.75754845208786,7.0,6.0,57.857778177458734,60.94049993941387,32.85073954289596
465,430.75754845208786,7.0,6.0,57.857778177458734,60.94049993941387,32.85073954289596
466,422.14239748304476,7.0,6.0,57.569767188304795,60.33109494001964,33.12502735040918
467,422.14239748304476,7.0,6.0,57.569767188304795,60.33109494001964,33.12502735040918
468,413.6995495333866,10.0,10.0,57.48128490687308,68.75901501544557,37.113283680794794
469,413.6995495333866,10.0,10.0,57.48128490687308,68.75901501544557,37.113283680794794
470,405.4255585427193,8.0,12.0,57.49173359519417,68.07142486529092,41.13199324966914
471,405.4255585427193,8.0,12.0,57.49173359519417,68.07142486529092,41.13199324966914
472,397.3170473718651,7.0,13.0,57.55118243842873,75.97432840485418,46.17046384368161
473,397.3170473718651,7.0,13.0,57.55118243842873,75.97432840485418,46.17046384368161
474,389.37070642442336,7.0,13.0,57.609370791555016,75.21458512080538,49.52211675216119
475,389.37070642442336,7.0,13.0,57.609370791555016,75.21458512080538,49.52211675216119
476,381.5832922959401,8.0,13.0,57.666165494809995,74.46243926959745,51.50467153915662
477,381.5832922959401,8.0,13.0,57.666165494809995,74.46243926959745,51.50467153915662
478,373.9516264500201,8.0,13.0,57.722165280026246,73.71781487690106,53.22381340086653
479,373.9516264500201,8.0,13.0,57.722165280026246,73.71781487690106,53.22381340086653
480,366.47259392102416,8.0,13.0,57.777293887491965,72.98063672813183,54.674349124078894
481,366.47259392102416,8.0,13.0,57.777293887491965,72.98063672813183,54.674349124078894
482,359.1431420425988,7.0,14.0,57.88044341775492,72.2508303608504,56.30066846613851
483,359.1431420425988,7.0,14.0,57.88044341775492,72.2508303608504,56.30066846613851
484,351.9602792017476,7.0,14.0,57.98273602541454,71.52832205724224,58.00146820027057
485,351.9602792017476,7.0,14.0,57.98273602541454,71.52832205724224,58.00146820027057
486,344.92107361771275,9.0,16.0,58.18180511506971,70.81303883666989,61.09741505816187
487,344.92107361771275,9.0,16.0,58.18180511506971,70.81303883666989,61.09741505816187
488,338.0226521453601,9.0,16.0,58.376280841447716,70.10490844830339,62.99051772029722
489,338.0226521453601,9.0,16.0,58.376280841447716,70.10490844830339,62.99051772029722
490,331.26219910245345,8.0,17.0,58.619999686877314,69.40385936382019,65.20231997860294
491,331.26219910245345,8.0,17.0,58.619999686877314,69.40385936382019,65.20231997860294
492,324.63695512040414,14.0,20.0,59.00786383999019,77.64340747230199,68.95499651318349
493,324.63695512040414,14.0,20.0,59.00786383999019,77.64340747230199,68.95499651318349
494,318.1442160179939,12.0,22.0,59.490056324667584,76.86697339757869,73.71869167401728
495,318.1442160179939,12.0,22.0,59.490056324667584,76.86697339757869,73.71869167401728
496,311.7813316976345,12.0,24.0,60.06382884848038,76.09830366360258,77.80445155621615
497,311.7813316976345,12.0,24.0,60.06382884848038,76.09830366360258,77.80445155621615
498,305.5457050636838,12.0,24.0,60.63032418656019,75.33732062696656,80.83767506842581
499,305.5457050636838,12.0,24.0,60.63032418656019,75.33732062696656,80.83767506842581
500,299.434790962404,12.0,24.0,61.19054198819109,74.58394742069741,82.998258390173
501,299.434790962404,12.0,24.0,61.19054198819109,74.58394742069741,82.998258390173
502,293.44609514316176,12.0,24.0,61.74402721208768,73.83810794648974,84.66810694327714
503,293.44609514316176,12.0,24.0,61.74402721208768,73.83810794648974,84.66810694327714
504,287.5771732402953,13.0,26.0,62.38979512224395,73.09972686702513,88.33518484313663
505,287.5771732402953,13.0,26.0,62.38979512224395,73.09972686702513,88.33518484313663
506,281.82562977548804,12.0,27.0,63.07443308216123,72.36872959835529,90.92792740097866
507,281.82562977548804,12.0,27.0,63.07443308216123,72.36872959835529,90.92792740097866
508,276.18911717998225,10.0,29.0,63.851497336387496,71.64504230237121,96.75607529594822
509,276.18911717998225,10.0,29.0,63.851497336387496,71.64504230237121,96.75607529594822
510,270.66533483638216,9.0,28.0,64.57155880412529,70.92859187934805,100.72901634490951
511,270.66533483638216,9.0,28.0,64.57155880412529,70.92859187934805,100.72901634490951
512,265.2520281396522,9.0,28.0,65.28483539570736,70.21930596055395,102.69912399147104
513,265.2520281396522,9.0,28.0,65.28483539570736,70.21930596055395,102.69912399147104
514,259.94698757686194,9.0,28.0,65.99016337147307,69.51711290094799,104.5233088191163
515,259.94698757686194,9.0,28.0,65.99016337147307,69.51711290094799,104.5233088191163
516,254.74804782532135,8.0,29.0,66.73642700634619,68.82194177193867,107.09218098814785
517,254.74804782532135,8.0,29.0,66.73642700634619,68.82194177193867,107.09218098814785
518,249.65308686881588,7.0,30.0,67.5235897954168,68.13372235421988,110.95121694637145
519,249.65308686881588,7.0,30.0,67.5235897954168,68.13372235421988,110.95121694637145
520,244.66002513144133,7.0,30.0,68.29938218752086,76.29370035193354,112.60414114763803
521,244.66002513144133,7.0,30.0,68.29938218752086,76.29370035193354,112.60414114763803
522,239.76682462881098,6.0,31.0,69.11636886211022,84.19489386583119,115.08367859569287
523,239.76682462881098,6.0,31.0,69.11636886211022,84.19489386583119,115.08367859569287
524,234.97148813623517,6.0,31.0,69.92394446354047,83.35294492717328,116.05855898891056
525,234.97148813623517,6.0,31.0,69.92394446354047,83.35294492717328,116.05855898891056
526,230.27205837350866,5.0,32.0,70.77357653471275,82.51941547790128,118.45100710901634
527,230.27205837350866,5.0,32.0,70.77357653471275,82.51941547790128,118.45100710901634
528,225.66661720603977,4.0,33.0,71.66318846595368,81.6942213231225,120.66064309349571
529,225.66661720603977,4.0,33.0,71.66318846595368,81.6942213231225,120.66064309349571
530,221.1532848619209,4.0,33.0,72.54204903796648,80.87727910989146,121.70316163459606
531,221.1532848619209,4.0,33.0,72.54204903796648,80.87727910989146,121.70316163459606
532,216.73021916468105,4.0,33.0,73.40785451467923,80.06850631879242,121.99307121185433
533,216.73021916468105,4.0,33.0,73.40785451467923,80.06850631879242,121.99307121185433
534,212.3956147813883,7.0,33.0,74.26517629434183,79.2678212556043,122.07888818893514
535,212.3956147813883,7.0,33.0,74.26517629434183,79.2678212556043,122.07888818893514
536,208.14770248576042,7.0,33.0,75.1101038793279,78.47514304304825,121.66551459984724
537,208.14770248576042,7.0,33.0,75.1101038793279,78.47514304304825,121.66551459984724
538,203.9847484360425,6.0,33.0,75.94620163007666,77.6903916126177,121.93020894491595
539,203.9847484360425,6.0,33.0,75.94620163007666,77.6903916126177,121.93020894491595
540,199.90505346732402,5.0,34.0,76.81855308216018,76.91348769649164,123.56810132262052
541,199.90505346732402,5.0,34.0,76.81855308216018,76.91348769649164,123.56810132262052
542,195.90695239797822,5.0,34.0,77.67891692443747,76.14435281952655,123.55576200054684
543,195.90695239797822,5.0,34.0,77.67891692443747,76.14435281952655,123.55576200054684
544,191.9888133500182,5.0,34.0,78.52783037191305,75.38290929133147,123.16089629709471
545,191.9888133500182,5.0,34.0,78.52783037191305,75.38290929133147,123.16089629709471
546,188.14903708301705,5.0,34.0,79.36334371026119,74.62908019841795,122.31736813714626
547,188.14903708301705,5.0,34.0,79.36334371026119,74.62908019841795,122.31736813714626
548,184.38605634135624,5.0,34.0,80.18414132800542,73.88278939643419,121.0424496253404
549,184.38605634135624,5.0,34.0,80.18414132800542,73.88278939643419,121.0424496253404
550,180.69833521452983,5.0,34.0,80.98103109534777,73.14396150246944,119.68074857938619
551,180.69833521452983,5.0,34.0,80.98103109534777,73.14396150246944,119.68074857938619
552,177.08436851024086,11.0,34.0,81.78505285565832,72.41252188744477,118.89873456557082
553,177.08436851024086,11.0,34.0,81.78505285565832,72.41252188744477,118.89873456557082
554,173.5426811400351,8.0,36.0,82.6710981104339,71.68839666857059,119.44472713936158
555,173.5426811400351,8.0,36.0,82.6710981104339,71.68839666857059,119.44472713936158
556,170.07182751723462,6.0,38.0,83.64479108739587,70.97151270188449,119.98935221716273
557,170.07182751723462,6.0,38.0,83.64479108739587,70.97151270188449,119.98935221716273
558,166.67039096688777,6.0,38.0,84.60772761962909,70.26179757486584,120.04979600734792
559,166.67039096688777,6.0,38.0,84.60772761962909,70.26179757486584,120.04979600734792
560,163.33698314755154,5.0,37.0,85.51130035764612,69.55917959911714,120.31801129034982
561,163.33698314755154,5.0,37.0,85.51130035764612,69.55917959911714,120.31801129034982
562,160.07024348460166,4.0,37.0,86.39866604062928,68.86358780312585,120.66438514248757
563,160.07024348460166,4.0,37.0,86.39866604062928,68.86358780312585,120.66438514248757
564,156.86883861490983,3.0,38.0,87.31954039552727,68.17495192509492,121.35408562129808
565,156.86883861490983,3.0,38.0,87.31954039552727,68.17495192509492,121.35408562129808
566,153.73146184261077,3.0,37.0,88.18406880013828,67.49320240584416,121.00160029954773
567,153.73146184261077,3.0,37.0,88.18406880013828,67.49320240584416,121.00160029954773
568,150.6568326057583,3.0,36.0,88.99570312012332,66.81827038178533,120.33310775987964
569,150.6568326057583,3.0,36.0,88.99570312012332,66.81827038178533,120.33310775987964
570,147.64369595364332,3.0,36.0,89.79484035827325,66.15008767796736,119.13416738437765
571,147.64369595364332,3.0,36.0,89.79484035827325,66.15008767796736,119.13416738437765
572,144.6908220345701,3.0,36.0,90.58681829262412,65.48858680118771,118.09680151132831
573,144.6908220345701,3.0,36.0,90.58681829262412,65.48858680118771,118.09680151132831
574,141.7970055938788,3.0,36.0,91.36635042687928,64.83370093317622,116.73765964857971
575,141.7970055938788,3.0,36.0,91.36635042687928,64.83370093317622,116.73765964857971
576,138.9610654820012,3.0,36.0,92.12700328448021,64.185363923844,115.15070132304868
577,138.9610654820012,3.0,36.0,92.12700328448021,64.185363923844,115.15070132304868
578,136.181844172361,3.0,36.0,92.86845687292184,63.54351028460564,113.46438391173932
579,136.181844172361,3.0,36.0,92.86845687292184,63.54351028460564,113.46438391173932
580,133.45820728891275,3.0,35.0,93.5506219228713,62.908075181759415,111.2697898624917
581,133.45820728891275,3.0,35.0,93.5506219228713,62.908075181759415,111.2697898624917
582,130.78904314313627,3.0,35.0,94.22103749264083,62.27899442994205,109.24225515315564
583,130.78904314313627,3.0,35.0,94.22103749264083,62.27899442994205,109.24225515315564
584,128.17326228027247,3.0,35.0,94.88278409622816,61.65620448564299,107.01379578066603
585,128.17326228027247,3.0,35.0,94.88278409622816,61.65620448564299,107.01379578066603
586,125.60979703466776,3.0,33.0,95.45164986116463,61.039642440786224,104.74336192111375
587,125.60979703466776,3.0,33.0,95.45164986116463,61.039642440786224,104.74336192111375
588,123.09760109397388,1.0,34.0,96.06330669173609,60.429246016378634,104.10597099734466
589,123.09760109397388,1.0,34.0,96.06330669173609,60.429246016378634,104.10597099734466
590,120.63564907209383,7.0,34.0,96.67425389467655,69.24647283374357,104.6469113828428
591,120.63564907209383,7.0,34.0,96.67425389467655,69.24647283374357,104.6469113828428
592,118.22293609065238,6.0,34.0,97.26391458782645,68.55400810540564,104.28161552213002
593,118.22293609065238,6.0,34.0,97.26391458782645,68.55400810540564,104.28161552213002
594,115.85847736883981,6.0,34.0,97.84721210799329,67.86846802435174,103.20849322234022
595,115.85847736883981,6.0,34.0,97.84721210799329,67.86846802435174,103.20849322234022
596,113.54130782146267,6.0,33.0,98.3800204503411,67.18978334410801,101.60814853214373
597,113.54130782146267,6.0,33.0,98.3800204503411,67.18978334410801,101.60814853214373
598,111.270481665034,9.0,35.0,99.0035101346385,66.51788551066682,101.24698963522654
599,111.270481665034,9.0,35.0,99.0035101346385,66.51788551066682,101.24698963522654
600,109.04507203173287,8.0,35.0,99.63348330528966,65.85270665556024,102.21772058324343
601,109.04507203173287,8.0,35.0,99.63348330528966,65.85270665556024,102.21772058324343
602,106.86417059109783,14.0,36.0,100.30078334128851,65.19417958900478,102.3331514676936
603,106.86417059109783,14.0,36.0,100.30078334128851,65.19417958900478,102.3331514676936
604,104.72688717927622,13.0,37.0,101.00488577587858,64.54223779311438,101.85234193049395
605,104.72688717927622,13.0,37.0,101.00488577587858,64.54223779311438,101.85234193049395
606,102.63234943569061,13.0,37.0,101.69818627556461,63.896815415183326,101.14877951226998
607,102.63234943569061,13.0,37.0,101.69818627556461,63.896815415183326,101.14877951226998
608,100.57970244697572,13.0,35.0,102.29521566413348,63.25784726103123,100.13904675445578
609,100.57970244697572,13.0,35.0,102.29521566413348,63.25784726103123,100.13904675445578
610,98.5681083980388,13.0,35.0,102.87700486499335,62.62526878842156,98.99882432535564
611,98.5681083980388,13.0,35.0,102.87700486499335,62.62526878842156,98.99882432535564
612,96.59674623007693,13.0,35.0,103.4537132382865,61.99901610053675,97.79788537690128
613,96.59674623007693,13.0,35.0,103.4537132382865,61.99901610053675,97.79788537690128
614,94.66481130547508,13.0,33.0,103.94752740536784,61.37902593953186,96.52076409221642
615,94.66481130547508,13.0,33.0,103.94752740536784,61.37902593953186,96.52076409221642
616,92.77151507936559,13.0,32.0,104.38266673269617,60.76523568013644,94.94596446047343
617,92.77151507936559,13.0,32.0,104.38266673269617,60.76523568013644,94.94596446047343
618,90.91608477777835,13.0,30.0,104.72133691502074,60.15758332333494,93.1395853900934
619,90.91608477777835,13.0,30.0,104.72133691502074,60.15758332333494,93.1395853900934
620,89.09776308222212,13.0,29.0,105.01355072642365,59.55600749010181,91.14747387567154
621,89.09776308222212,13.0,29.0,105.01355072642365,59.55600749010181,91.14747387567154
622,87.31580782057843,13.0,29.0,105.30076081547836,58.960447415200875,89.15368505516899
623,87.31580782057843,13.0,29.0,105.30076081547836,58.960447415200875,89.15368505516899
624,85.56949166416679,13.0,27.0,105.49158894235352,58.37084294104869,86.93795182401742
625,85.56949166416679,13.0,27.0,105.49158894235352,58.37084294104869,86.93795182401742
626,83.85810183088422,13.0,27.0,105.67776889106332,57.787134511638044,84.79594817605005
627,83.85810183088422,13.0,27.0,105.67776889106332,57.787134511638044,84.79594817605005
628,82.18093979426558,13.0,27.0,105.86590584102753,57.20926316652187,82.60768809462353
629,82.18093979426558,13.0,27.0,105.86590584102753,57.20926316652187,82.60768809462353
630,80.53732099837974,15.0,29.0,106.1421948585115,56.63717053485665,81.00713839884324
631,80.53732099837974,15.0,29.0,106.1421948585115,56.63717053485665,81.00713839884324
632,78.92657457841287,15.0,27.0,106.31886734797067,56.070798829508156,79.24703700881756
633,78.92657457841287,15.0,27.0,106.31886734797067,56.070798829508156,79.24703700881756
634,77.34804308684467,14.0,28.0,106.54537079012069,55.51009084121299,77.9666355331665
635,77.34804308684467,14.0,28.0,106.54537079012069,55.51009084121299,77.9666355331665
636,75.80108222510881,14.0,28.0,106.74932305719274,54.95498993280083,76.53312305992732
637,75.80108222510881,14.0,28.0,106.74932305719274,54.95498993280083,76.53312305992732
638,74.28506058060543,13.0,28.0,106.95955608246535,54.40544003347289,74.99003017685548
639,74.28506058060543,13.0,28.0,106.95955608246535,54.40544003347289,74.99003017685548
640,72.79935936899341,13.0,27.0,107.11982985657289,53.861385633138184,73.28135572984921
641,72.79935936899341,13.0,27.0,107.11982985657289,53.861385633138184,73.28135572984921
642,71.34337218161416,13.0,27.0,107.27809167160333,53.322771776806775,71.51238998513392
643,71.34337218161416,13.0,27.0,107.27809167160333,53.322771776806775,71.51238998513392
644,69.91650473798124,12.0,26.0,107.38345435678231,52.789544059038484,69.62381133057143
645,69.91650473798124,12.0,26.0,107.38345435678231,52.789544059038484,69.62381133057143
646,68.51817464322085,12.0,24.0,107.40530211368606,52.26164861844823,67.77930662577516
647,68.51817464322085,12.0,24.0,107.40530211368606,52.26164861844823,67.77930662577516
648,67.14781115035717,12.0,24.0,107.42757889640635,51.73903213226407,65.9203357717458
649,67.14781115035717,12.0,24.0,107.42757889640635,51.73903213226407,65.9203357717458
650,65.80485492734992,12.0,21.0,107.31074840898754,51.22164181094117,63.80610637134261
651,65.80485492734992,12.0,21.0,107.31074840898754,51.22164181094117,63.80610637134261
652,64.48875782880299,11.0,22.0,107.24299381054117,50.709425392831825,62.029195393101006
653,64.48875782880299,11.0,22.0,107.24299381054117,50.709425392831825,62.029195393101006
654,63.19898267222737,11.0,21.0,107.12696499773826,50.202331138903375,60.209687723865954
655,63.19898267222737,11.0,21.0,107.12696499773826,50.202331138903375,60.209687723865954
656,61.93500301878204,10.0,20.0,106.9629740613056,49.700307827514365,58.3693796167458
657,61.93500301878204,10.0,20.0,106.9629740613056,49.700307827514365,58.3693796167458
658,60.696302958406676,17.0,20.0,106.8145013014486,49.20330474923911,56.76918243859251
659,60.696302958406676,17.0,20.0,106.8145013014486,49.20330474923911,56.76918243859251
660,59.48237689923845,16.0,21.0,106.71176689315419,48.711271701747094,56.195595681150444
661,59.48237689923845,16.0,21.0,106.71176689315419,48.711271701747094,56.195595681150444
662,58.29272936125353,14.0,23.0,106.70507939581087,48.224158984729115,55.71746217639434
663,58.29272936125353,14.0,23.0,106.70507939581087,48.224158984729115,55.71746217639434
664,57.12687477402845,13.0,24.0,106.74361961002252,47.74191739488243,55.19045105445646
665,57.12687477402845,13.0,24.0,106.74361961002252,47.74191739488243,55.19045105445646
666,55.98433727854881,16.0,26.0,106.87457702453268,47.26449822093323,54.932013624715054
667,55.98433727854881,16.0,26.0,106.87457702453268,47.26449822093323,54.932013624715054
668,54.864650532977095,16.0,26.0,106.99649004464904,46.79185323872395,54.36458485718382
669,54.864650532977095,16.0,26.0,106.99649004464904,46.79185323872395,54.36458485718382
670,53.76735752231778,17.0,26.0,107.11465107327444,46.32393470633674,53.83734128335357
671,53.76735752231778,17.0,26.0,107.11465107327444,46.32393470633674,53.83734128335357
672,16731.27677235836,16.0,26.0,107.22712118380906,45.86069535927354,53.12064453712671
673,16731.27677235836,16.0,26.0,107.22712118380906,45.86069535927354,53.12064453712671
674,16396.651236911068,14.0,28.0,107.43608159703881,45.402088405680715,53.06274924216044
675,16396.651236911068,14.0,28.0,107.43608159703881,45.402088405680715,53.06274924216044
676,16068.718212172767,14.0,27.0,107.59284428462696,44.94806752162396,52.835145264616976
677,16068.718212172767,14.0,27.0,107.59284428462696,44.94806752162396,52.835145264616976
678,15747.34384792945,14.0,27.0,107.7553041283979,44.49858684640766,52.40715330070564
679,15747.34384792945,14.0,27.0,107.7553041283979,44.49858684640766,52.40715330070564
680,15432.396970970742,13.0,26.0,107.86296802623622,44.05360097794352,51.84299286165005
681,15432.396970970742,13.0,26.0,107.86296802623622,44.05360097794352,51.84299286165005
682,15123.749031551359,13.0,25.0,107.92600820452971,43.61306496816397,51.13712614733401
683,15123.749031551359,13.0,25.0,107.92600820452971,43.61306496816397,51.13712614733401
684,14821.274050920247,11.0,27.0,108.08644387866686,43.17693431848249,50.87833681838338
685,14821.274050920247,11.0,27.0,108.08644387866686,43.17693431848249,50.87833681838338
686,14524.848569901866,10.0,25.0,108.15399525231334,42.74516497529758,50.25192532943326
687,14524.848569901866,10.0,25.0,108.15399525231334,42.74516497529758,50.25192532943326
688,14234.351598503872,10.0,25.0,108.21286143787083,42.31771332554476,49.48684773292244
689,14234.351598503872,10.0,25.0,108.21286143787083,42.31771332554476,49.48684773292244
690,13949.664566533858,9.0,26.0,108.31173236093416,41.894536192289294,48.899508022568774
691,13949.664566533858,9.0,26.0,108.31173236093416,41.894536192289294,48.899508022568774
692,13670.671275203214,9.0,26.0,108.41493553583756,41.47559083036631,48.24468395764439
693,13670.671275203214,9.0,26.0,108.41493553583756,41.47559083036631,48.24468395764439
694,13397.257849698979,8.0,26.0,108.5107074279284,41.06083492206275,47.508513756252825
695,13397.257849698979,8.0,26.0,108.5107074279284,41.06083492206275,47.508513756252825
696,13129.31269270513,14.0,26.0,108.60141889731845,40.65022657284197,46.68047126098698
697,13129.31269270513,14.0,26.0,108.60141889731845,40.65022657284197,46.68047126098698
698,12866.726438850988,14.0,23.0,108.56293415599261,40.24372430711353,45.758413787028
699,12866.726438850988,14.0,23.0,108.56293415599261,40.24372430711353,45.758413787028
700,12609.391910073986,14.0,23.0,108.52129020569411,39.8412870640422,44.70690715160403
701,12609.391910073986,14.0,23.0,108.52129020569411,39.8412870640422,44.70690715160403
702,12357.204071872406,13.0,23.0,108.48599241021171,39.44287419340206,44.08040638274014
703,12357.204071872406,13.0,23.0,108.48599241021171,39.44287419340206,44.08040638274014
704,12110.059990435077,12.0,23.0,108.45850969307787,39.048445451468105,43.53669273572743
705,12110.059990435077,12.0,23.0,108.45850969307787,39.048445451468105,43.53669273572743
706,11867.858790626242,11.0,23.0,108.43091527871759,38.657960996953456,43.28807801999657
707,11867.858790626242,11.0,23.0,108.43091527871759,38.657960996953456,43.28807801999657
708,11630.501614813913,9.0,25.0,108.4984743741264,38.27138138698383,43.37573461675463
709,11630.501614813913,9.0,25.0,108.4984743741264,38.27138138698383,43.37573461675463
710,11397.89158251756,9.0,25.0,108.55981113555295,37.88866757311398,43.085614713887786
711,11397.89158251756,9.0,25.0,108.55981113555295,37.88866757311398,43.085614713887786
712,11169.933750867049,9.0,24.0,108.57491969306896,37.50978089738273,42.79871037750173
713,11169.933750867049,9.0,24.0,108.57491969306896,37.50978089738273,42.79871037750173
714,10946.535075849974,9.0,23.0,108.54241483393044,37.134683088409076,42.35035438915264
715,10946.535075849974,9.0,23.0,108.54241483393044,37.134683088409076,42.35035438915264
716,10727.6043743328,9.0,23.0,108.51331218251528,36.76333625752483,41.84417884401807
717,10727.6043743328,9.0,23.0,108.51331218251528,36.76333625752483,41.84417884401807
718,10513.052286846103,9.0,23.0,108.4801436060609,36.395702894949714,41.31289829632448
719,10513.052286846103,9.0,23.0,108.4801436060609,36.395702894949714,41.31289829632448
720,10302.791241109462,9.0,23.0,108.43747614827075,36.03174586600029,40.531833961910195
721,10302.791241109462,9.0,23.0,108.43747614827075,36.03174586600029,40.531833961910195
722,10096.735416287158,8.0,21.0,108.3052724185623,35.67142840734013,39.759262511340424
723,10096.735416287158,8.0,21.0,108.3052724185623,35.67142840734013,39.759262511340424
724,9894.80070796123,14.0,22.0,108.22082013270231,35.31471412326671,39.16556158293786
725,9894.80070796123,14.0,22.0,108.22082013270231,35.31471412326671,39.16556158293786
726,9696.904693802127,14.0,21.0,108.08897683528913,34.96156698203392,38.49855796869543
727,9696.904693802127,14.0,21.0,108.08897683528913,34.96156698203392,38.49855796869543
728,9502.96659992608,14.0,21.0,107.95009839815087,34.61195131221378,37.795723829455184
729,9502.96659992608,14.0,21.0,107.95009839815087,34.61195131221378,37.795723829455184
730,9312.907267927494,13.0,21.0,107.81975309531053,34.26583179909136,37.34647432504264
731,9312.907267927494,13.0,21.0,107.81975309531053,34.26583179909136,37.34647432504264
732,9126.649122568855,11.0,20.0,107.64821996388197,33.92317348110069,37.7236285373698
733,9126.649122568855,11.0,20.0,107.64821996388197,33.92317348110069,37.7236285373698
734,8944.116140117683,10.0,21.0,107.53127973409208,33.58394174628946,38.38208635138909
735,8944.116140117683,10.0,21.0,107.53127973409208,33.58394174628946,38.38208635138909
736,8765.233817315382,10.0,20.0,107.36960651099709,33.24810232882679,38.55599134683149
737,8765.233817315382,10.0,20.0,107.36960651099709,33.24810232882679,38.55599134683149
738,8589.929140969045,9.0,20.0,107.20130177771792,32.91562130553843,38.51548651660634
739,8589.929140969045,9.0,20.0,107.20130177771792,32.91562130553843,38.51548651660634
740,8418.130558149638,9.0,20.0,107.03459387796012,32.58646509248311,38.333681950152226
741,8418.130558149638,9.0,20.0,107.03459387796012,32.58646509248311,38.333681950152226
742,8249.76794698663,15.0,21.0,106.91757156058176,32.26060044155841,38.177061156146266
743,8249.76794698663,15.0,21.0,106.91757156058176,32.26060044155841,38.177061156146266
744,8084.772588046831,13.0,23.0,106.89819400260272,31.93799443714267,38.8417542996812
745,8084.772588046831,13.0,23.0,106.89819400260272,31.93799443714267,38.8417542996812
746,7923.077136285948,12.0,24.0,106.93157127401233,31.61861449277137,39.804406370365264
747,7923.077136285948,12.0,24.0,106.93157127401233,31.61861449277137,39.804406370365264
748,7764.61559356015,12.0,21.0,106.83044053611195,31.302428347843524,40.06566611333855
749,7764.61559356015,12.0,21.0,106.83044053611195,31.302428347843524,40.06566611333855
750,7609.323281689022,12.0,21.0,106.72884731115883,30.989404064365253,40.279931519404755
751,7609.323281689022,12.0,21.0,106.72884731115883,30.989404064365253,40.279931519404755
752,7457.136816055168,11.0,22.0,106.67781991768842,30.67951002372145,40.9899791596676
753,7457.136816055168,11.0,22.0,106.67781991768842,30.67951002372145,40.9899791596676
754,7307.994079734207,11.0,20.0,106.53938172309093,30.372714923484352,41.23600627500309
755,7307.994079734207,11.0,20.0,106.53938172309093,30.372714923484352,41.23600627500309
756,7161.83419813936,10.0,20.0,106.41135960808813,30.068987774249393,42.138624294970526
757,7161.83419813936,10.0,20.0,106.41135960808813,30.068987774249393,42.138624294970526
758,7018.5975141766585,10.0,20.0,106.28336126387623,29.76829789650701,42.65956050007207
759,7018.5975141766585,10.0,20.0,106.28336126387623,29.76829789650701,42.65956050007207
760,6878.225563893116,9.0,21.0,106.20441403852926,29.47061491754178,43.76190233206038
761,6878.225563893116,9.0,21.0,106.20441403852926,29.47061491754178,43.76190233206038
762,6740.661052615281,8.0,21.0,106.12792874269796,29.175908768366398,45.108075856589345
763,6740.661052615281,8.0,21.0,106.12792874269796,29.175908768366398,45.108075856589345
764,6605.847831562959,7.0,22.0,106.10005199072457,28.884149680682707,46.4906265542366
765,6605.847831562959,7.0,22.0,106.10005199072457,28.884149680682707,46.4906265542366
766,6473.73087493165,6.0,22.0,106.07756119856674,28.595308183875915,48.0221369073775
767,6473.73087493165,6.0,22.0,106.07756119856674,28.595308183875915,48.0221369073775
768,6344.256257433027,6.0,22.0,106.05205698114159,28.309355102037046,48.928087787070496
769,6344.256257433027,6.0,22.0,106.05205698114159,28.309355102037046,48.928087787070496
770,6217.371132284427,4.0,23.0,106.07548641898842,28.026261551016905,50.24600934676753
771,6217.371132284427,4.0,23.0,106.07548641898842,28.026261551016905,50.24600934676753
772,6093.023709638709,4.0,23.0,106.0925858850787,27.745998935506723,51.05520261410756
773,6093.023709638709,4.0,23.0,106.0925858850787,27.745998935506723,51.05520261410756
774,5971.163235445928,4.0,23.0,106.10908626441496,27.468538946151536,51.39988765743107
775,5971.163235445928,4.0,23.0,106.10908626441496,27.468538946151536,51.39988765743107
776,5851.7399707370405,3.0,23.0,106.12267405148589,27.193853556690105,51.56411856447704
777,5851.7399707370405,3.0,23.0,106.12267405148589,27.193853556690105,51.56411856447704
778,5734.705171322285,3.0,23.0,106.13525891073066,26.921915021123134,51.54097572101938
779,5734.705171322285,3.0,23.0,106.13525891073066,26.921915021123134,51.54097572101938
780,5620.011067895886,8.0,25.0,106.23607333772767,26.652695870911835,52.13161331383732
781,5620.011067895886,8.0,25.0,106.23607333772767,26.652695870911835,52.13161331383732
782,5507.610846537859,6.0,25.0,106.34303052890137,26.386168912202717,53.557205114821926
783,5507.610846537859,6.0,25.0,106.34303052890137,26.386168912202717,53.557205114821926
784,5397.4586296071375,6.0,25.0,106.44451624918419,26.122307223080842,54.217690995797234
785,5397.4586296071375,6.0,25.0,106.44451624918419,26.122307223080842,54.217690995797234
786,5289.509457015024,6.0,25.0,106.54761030663593,25.86108415085,54.772210747281875
787,5289.509457015024,6.0,25.0,106.54761030663593,25.86108415085,54.772210747281875
788,5183.719267874741,4.0,26.0,106.70252922109832,25.602473309341423,56.51856907961717
789,5183.719267874741,4.0,26.0,106.70252922109832,25.602473309341423,56.51856907961717
790,5080.044882517185,3.0,26.0,106.85183196290912,25.34644857624809,57.25092810682653
791,5080.044882517185,3.0,26.0,106.85183196290912,25.34644857624809,57.25092810682653
792,4978.443984866877,3.0,26.0,107.00015881721106,25.092984090485544,57.62119789043337
793,4978.443984866877,3.0,26.0,107.00015881721106,25.092984090485544,57.62119789043337
794,4878.875105169527,3.0,26.0,107.14476266108338,24.842054249580695,57.695512881012654
795,4878.875105169527,3.0,26.0,107.14476266108338,24.842054249580695,57.695512881012654
796,4781.297603066115,3.0,26.0,107.28578000881538,24.59363370708492,57.51550036905942
797,4781.297603066115,3.0,26.0,107.28578000881538,24.59363370708492,57.51550036905942
798,4685.671651004815,2.0,27.0,107.47524236081948,24.34769737001413,58.176284854894675
799,4685.671651004815,2.0,27.0,107.47524236081948,24.34769737001413,58.176284854894675
800,4591.95821798471,2.0,27.0,107.65768821398017,24.104220396313888,58.23344913728732
801,4591.95821798471,2.0,27.0,107.65768821398017,24.104220396313888,58.23344913728732
802,4500.119053625044,1.0,28.0,107.87494429300217,23.86317819235065,58.75841523990151
803,4500.119053625044,1.0,28.0,107.87494429300217,23.86317819235065,58.75841523990151
804,4410.116672552507,1.0,28.0,108.09068294911602,23.624546410427275,58.82689545438972
805,4410.116672552507,1.0,28.0,108.09068294911602,23.624546410427275,58.82689545438972
806,4321.914339101417,1.0,27.0,108.26175193440535,23.38830094632307,58.627844153533104
807,4321.914339101417,1.0,27.0,108.26175193440535,23.38830094632307,58.627844153533104
808,4235.476052319457,1.0,26.0,108.3816561506793,23.15441793685973,58.13363845217166
809,4235.476052319457,1.0,26.0,108.3816561506793,23.15441793685973,58.13363845217166
810,4150.766531273083,1.0,25.0,108.4520318226732,22.92287375749106,57.44040270324444
811,4150.766531273083,1.0,25.0,108.4520318226732,22.92287375749106,57.44040270324444
812,4067.751200647601,1.0,24.0,108.4770838618816,22.693645019916154,56.74886224204488
813,4067.751200647601,1.0,24.0,108.4770838618816,22.693645019916154,56.74886224204488
814,3986.396176634643,1.0,24.0,108.49384898991387,22.466708569717106,55.98119792207312
815,3986.396176634643,1.0,24.0,108.49384898991387,22.466708569717106,55.98119792207312
816,3906.668253101918,1.0,23.0,108.46967009830396,22.24204148401991,55.05543689670176
817,3906.668253101918,1.0,23.0,108.46967009830396,22.24204148401991,55.05543689670176
818,3828.534888039877,0.0,22.0,108.40790367982467,22.019621069179834,55.164587710611166
819,3828.534888039877,0.0,22.0,108.40790367982467,22.019621069179834,55.164587710611166
820,3751.9641902791604,0.0,22.0,108.34812518614653,21.799424858487928,54.70526882530458
821,3751.9641902791604,0.0,22.0,108.34812518614653,21.799424858487928,54.70526882530458
822,3676.9249064735186,0.0,21.0,108.24597612017858,21.581430609903034,54.12047197806123
823,3676.9249064735186,0.0,21.0,108.24597612017858,21.581430609903034,54.12047197806123
824,3603.386408344021,0.0,21.0,108.14145289847494,21.365616303804096,53.34564192182016
825,3603.386408344021,0.0,21.0,108.14145289847494,21.365616303804096,53.34564192182016
826,3531.3186801771803,0.0,21.0,108.0346936703443,21.151960140766032,52.428596714267975
827,3531.3186801771803,0.0,21.0,108.0346936703443,21.151960140766032,52.428596714267975
828,3460.6923065736505,3.0,22.0,107.98059932908987,20.94044053935824,52.05231181944389
829,3460.6923065736505,3.0,22.0,107.98059932908987,20.94044053935824,52.05231181944389
830,3391.4784604421257,3.0,22.0,107.92193144155597,20.73103613396481,51.44924759840558
831,3391.4784604421257,3.0,22.0,107.92193144155597,20.73103613396481,51.44924759840558
832,3323.648891233368,3.0,21.0,107.81807492846266,20.523725772625088,50.602073636427455
833,3323.648891233368,3.0,21.0,107.81807492846266,20.523725772625088,50.602073636427455
834,3257.175913408664,3.0,21.0,107.71415237547569,20.318488514898863,49.789278841067954
835,3257.175913408664,3.0,21.0,107.71415237547569,20.318488514898863,49.789278841067954
836,3192.0323951404653,3.0,21.0,107.60601430495309,20.115303629749793,48.9497530319471
837,3192.0323951404653,3.0,21.0,107.60601430495309,20.115303629749793,48.9497530319471
838,3128.1917472376676,2.0,22.0,107.55055257614248,19.91415059345238,49.1806021141218
839,3128.1917472376676,2.0,22.0,107.55055257614248,19.91415059345238,49.1806021141218
840,3065.6279122929122,2.0,21.0,107.44949495540327,19.71500908751776,48.80711402503704
841,3065.6279122929122,2.0,21.0,107.44949495540327,19.71500908751776,48.80711402503704
842,3004.315354047042,2.0,21.0,107.3474946301099,19.51785899664268,48.210715835936156
843,3004.315354047042,2.0,21.0,107.3474946301099,19.51785899664268,48.210715835936156
844,2944.2290469661048,2.0,21.0,107.24106436445456,19.32268040667628,47.64257627323124
845,2944.2290469661048,2.0,21.0,107.24106436445456,19.32268040667628,47.64257627323124
846,2885.344466026752,2.0,20.0,107.08856848080886,19.129453602609427,46.76489477227022
847,2885.344466026752,2.0,20.0,107.08856848080886,19.129453602609427,46.76489477227022
848,2827.6375767062746,2.0,19.0,106.8917646121676,18.938159066583367,45.87871524046679
849,2827.6375767062746,2.0,19.0,106.8917646121676,18.938159066583367,45.87871524046679
850,2771.0848251721295,2.0,19.0,106.69530916473504,18.748777475917628,44.9543935772145
851,2771.0848251721295,2.0,19.0,106.69530916473504,18.748777475917628,44.9543935772145
852,2715.6631286686725,1.0,18.0,106.4628098254258,18.561289701158383,45.538913054024725
853,2715.6631286686725,1.0,18.0,106.4628098254258,18.561289701158383,45.538913054024725
854,2661.3498660953023,1.0,18.0,106.23259403519663,18.375676804146792,45.530731887426654
855,2661.3498660953023,1.0,18.0,106.23259403519663,18.375676804146792,45.530731887426654
856,2608.122868773429,1.0,18.0,106.00261645183804,18.191920036105323,45.16510019239891
857,2608.122868773429,1.0,18.0,106.00261645183804,18.191920036105323,45.16510019239891
858,2555.960411397959,1.0,18.0,105.77035984503206,18.010000835744183,44.47846409186147
859,2555.960411397959,1.0,18.0,105.77035984503206,18.010000835744183,44.47846409186147
860,2504.8412031699886,1.0,16.0,105.44913030083428,17.829900827386894,43.617429538823025
861,2504.8412031699886,1.0,16.0,105.44913030083428,17.829900827386894,43.617429538823025
862,2454.7443791065775,1.0,16.0,105.13010814570275,17.651601819112976,42.780786864020534
863,2454.7443791065775,1.0,16.0,105.13010814570275,17.651601819112976,42.780786864020534
864,2405.6494915244252,1.0,16.0,104.80750596036073,17.475085800921736,41.858231729537465
865,2405.6494915244252,1.0,16.0,104.80750596036073,17.475085800921736,41.858231729537465
866,2357.5365016939227,1.0,16.0,104.48829617505406,17.300334942912652,41.02585205778694
867,2357.5365016939227,1.0,16.0,104.48829617505406,17.300334942912652,41.02585205778694
868,2310.3857716600955,1.0,15.0,104.12318711309725,17.12733159348349,40.096837408535016
869,2310.3857716600955,1.0,15.0,104.12318711309725,17.12733159348349,40.096837408535016
870,2264.1780562268837,1.0,15.0,103.75172943568029,16.956058277548617,39.16987593055354
871,2264.1780562268837,1.0,15.0,103.75172943568029,16.956058277548617,39.16987593055354
872,2218.894495102347,1.0,14.0,103.34297158983064,16.786497694773104,38.147469533362596
873,2218.894495102347,1.0,14.0,103.34297158983064,16.786497694773104,38.147469533362596
874,2174.5166052002805,1.0,12.0,102.84801666713456,16.618632717825392,37.08574604063362
875,2174.5166052002805,1.0,12.0,102.84801666713456,16.618632717825392,37.08574604063362
876,2131.0262730962904,1.0,11.0,102.31177616679727,16.45244639064723,35.91537325679176
877,2131.0262730962904,1.0,11.0,102.31177616679727,16.45244639064723,35.91537325679176
878,2088.4057476343646,1.0,11.0,101.79207836781725,16.287921926740722,34.96573371545643
879,2088.4057476343646,1.0,11.0,101.79207836781725,16.287921926740722,34.96573371545643
880,2046.6376326816785,1.0,10.0,101.22863169970938,16.125042707473277,33.83580618011116
881,2046.6376326816785,1.0,10.0,101.22863169970938,16.125042707473277,33.83580618011116
882,2005.7048800280413,6.0,9.0,100.63008131252218,15.96379228039857,32.84592460343019
883,2005.7048800280413,6.0,9.0,100.63008131252218,15.96379228039857,32.84592460343019
884,1965.5907824274884,5.0,9.0,100.03879461537935,15.804154357594559,33.078115171276906
885,1965.5907824274884,5.0,9.0,100.03879461537935,15.804154357594559,33.078115171276906
886,1926.278966778943,5.0,9.0,99.45604001660374,15.646112814018613,32.7024982513108
887,1926.278966778943,5.0,9.0,99.45604001660374,15.646112814018613,32.7024982513108
888,1887.7533874433705,5.0,8.0,98.83549348396997,15.489651685878417,32.144016684205646
889,1887.7533874433705,5.0,8.0,98.83549348396997,15.489651685878417,32.144016684205646
890,1849.9983196944827,5.0,8.0,98.21962338943368,15.334755169019699,31.530758816930412
891,1849.9983196944827,5.0,8.0,98.21962338943368,15.334755169019699,31.530758816930412
892,1812.998353300612,5.0,7.0,97.56691527272856,15.181407617329413,31.019434588621753
893,1812.998353300612,5.0,7.0,97.56691527272856,15.181407617329413,31.019434588621753
894,1776.7383862345846,5.0,7.0,96.92125827810565,15.029593541156196,30.435977279325247
895,1776.7383862345846,5.0,7.0,96.92125827810565,15.029593541156196,30.435977279325247
896,1741.203618509896,5.0,7.0,96.28149580571824,14.879297605744569,29.736056608266004
897,1741.203618509896,5.0,7.0,96.28149580571824,14.879297605744569,29.736056608266004
898,1706.3795461396905,4.0,7.0,95.64823313634237,14.73050462968716,29.11958935765666
899,1706.3795461396905,4.0,7.0,95.64823313634237,14.73050462968716,29.11958935765666
900,1672.2519552169015,7.0,8.0,95.07081524714746,14.583199583390261,29.33009509055359
901,1672.2519552169015,7.0,8.0,95.07081524714746,14.583199583390261,29.33009509055359
902,1638.806916112577,7.0,8.0,94.49888431119955,14.437367587556365,29.3667788676837
903,1638.806916112577,7.0,8.0,94.49888431119955,14.437367587556365,29.3667788676837
904,1606.030777790299,7.0,7.0,93.88511452939653,14.292993911680757,28.98222012860361
905,1606.030777790299,7.0,7.0,93.88511452939653,14.292993911680757,28.98222012860361
906,1573.9101622344888,7.0,7.0,93.27951344793807,14.15006397256399,28.670435650016117
907,1573.9101622344888,7.0,7.0,93.27951344793807,14.15006397256399,28.670435650016117
908,1542.4319589898196,7.0,7.0,92.67967119283645,14.008563332838358,28.305829223928125
909,1542.4319589898196,7.0,7.0,92.67967119283645,14.008563332838358,28.305829223928125
910,1511.5833198100133,6.0,8.0,92.13475942427662,13.868477699509972,28.895253938306833
911,1511.5833198100133,6.0,8.0,92.13475942427662,13.868477699509972,28.895253938306833
912,1481.3516534138234,6.0,8.0,91.59490361007603,13.729792922514905,28.931640866461066
913,1481.3516534138234,6.0,8.0,91.59490361007603,13.729792922514905,28.931640866461066
914,1451.7246203455377,5.0,9.0,91.10925334381349,13.592494993289694,30.095643542619
915,1451.7246203455377,5.0,9.0,91.10925334381349,13.592494993289694,30.095643542619
916,1422.6901279386286,5.0,9.0,90.62819254218576,13.456570043356905,30.556816347620543
917,1422.6901279386286,5.0,9.0,90.62819254218576,13.456570043356905,30.556816347620543
918,1394.2363253798649,3.0,10.0,90.20406342995733,13.322004342923254,33.166690547506654
919,1394.2363253798649,3.0,10.0,90.20406342995733,13.322004342923254,33.166690547506654
920,1366.3515988722736,3.0,9.0,89.7356094903042,13.188784299494035,34.17514046497776
921,1366.3515988722736,3.0,9.0,89.7356094903042,13.188784299494035,34.17514046497776
922,1339.024566894814,3.0,9.0,89.2716301856649,13.056896456499057,34.60848197684707
923,1339.024566894814,3.0,9.0,89.2716301856649,13.056896456499057,34.60848197684707
924,1312.2440755569276,3.0,9.0,88.81239826295962,12.926327491934089,35.12570672063716
925,1312.2440755569276,3.0,9.0,88.81239826295962,12.926327491934089,35.12570672063716
926,1285.9991940457887,3.0,9.0,88.35686186383444,12.797064217014732,35.22483569536062
927,1285.9991940457887,3.0,9.0,88.35686186383444,12.797064217014732,35.22483569536062
928,1260.279210164892,5.0,9.0,87.90367157703349,12.669093574844622,35.25373798874819
929,1260.279210164892,5.0,9.0,87.90367157703349,12.669093574844622,35.25373798874819
930,1235.073625961569,4.0,10.0,87.5060006808034,21.33860711744012,36.16481165540904
931,1235.073625961569,4.0,10.0,87.5060006808034,21.33860711744012,36.16481165540904
932,1210.3721534423553,4.0,9.0,87.0665699278291,21.12522104626582,36.72667664556165
933,1210.3721534423553,4.0,9.0,87.0665699278291,21.12522104626582,36.72667664556165
934,1186.1647103735065,4.0,9.0,86.63164140918289,20.91396883580306,37.217140055778074
935,1186.1647103735065,4.0,9.0,86.63164140918289,20.91396883580306,37.217140055778074
936,1162.4414161660247,4.0,9.0,86.20041115183534,20.704829147445047,37.382951466521156
937,1162.4414161660247,4.0,9.0,86.20041115183534,20.704829147445047,37.382951466521156
938,1139.1925878426844,4.0,9.0,85.77348489375944,20.49778085597058,37.40834260695855
939,1139.1925878426844,4.0,9.0,85.77348489375944,20.49778085597058,37.40834260695855
940,1116.4087360858416,4.0,9.0,85.35043620082388,20.292803047410914,37.306027846987504
941,1116.4087360858416,4.0,9.0,85.35043620082388,20.292803047410914,37.306027846987504
942,1094.0805613641369,4.0,9.0,84.93112070839054,20.089875016936723,37.03519280835013
943,1094.0805613641369,4.0,9.0,84.93112070839054,20.089875016936723,37.03519280835013
944,1072.1989501368485,5.0,9.0,84.51591126737189,19.888976266767443,36.75357696204473
945,1072.1989501368485,5.0,9.0,84.51591126737189,19.888976266767443,36.75357696204473
946,1050.7549711341112,5.0,9.0,84.10471937179605,19.690086504099774,36.49155601285341
947,1050.7549711341112,5.0,9.0,84.10471937179605,19.690086504099774,36.49155601285341
948,1029.7398717114154,5.0,8.0,83.6492902815537,19.493185639058755,36.001968468377235
949,1029.7398717114154,5.0,8.0,83.6492902815537,19.493185639058755,36.001968468377235
950,1009.1450742771955,6.0,10.0,83.29746977072168,19.29825378266813,36.73786443862346
951,1009.1450742771955,6.0,10.0,83.29746977072168,19.29825378266813,36.73786443862346
952,988.9621727916493,6.0,10.0,82.9486468395017,19.105271244841518,37.03347952027195
953,988.9621727916493,6.0,10.0,82.9486468395017,19.105271244841518,37.03347952027195
954,969.1829293358136,4.0,12.0,82.7015938673667,18.914218532393086,40.17138738767168
955,969.1829293358136,4.0,12.0,82.7015938673667,18.914218532393086,40.17138738767168
956,949.7992707491012,4.0,12.0,82.4566580760124,18.725076347069102,41.91714480455666
957,949.7992707491012,4.0,12.0,82.4566580760124,18.725076347069102,41.91714480455666
958,930.8032853341194,4.0,12.0,82.21350200995508,18.53782558359848,42.66385292584874
959,930.8032853341194,4.0,12.0,82.21350200995508,18.53782558359848,42.66385292584874
960,912.1872196274487,4.0,12.0,81.97257968054934,18.352447327762476,43.49151949513646
961,912.1872196274487,4.0,12.0,81.97257968054934,18.352447327762476,43.49151949513646
962,893.9434752348913,4.0,12.0,81.73311015615968,18.168922854484823,43.798572358135615
963,893.9434752348913,4.0,12.0,81.73311015615968,18.168922854484823,43.798572358135615
964,876.0646057301959,4.0,12.0,81.49564149874305,17.987233625939986,43.99544368168369
965,876.0646057301959,4.0,12.0,81.49564149874305,17.987233625939986,43.99544368168369
966,858.5433136155799,3.0,13.0,81.30971939807485,26.94238332694228,45.53823580449476
967,858.5433136155799,3.0,13.0,81.30971939807485,26.94238332694228,45.53823580449476
968,841.372447343283,3.0,13.0,81.12490253093787,26.672959493672828,46.20950892413226
969,841.372447343283,3.0,13.0,81.12490253093787,26.672959493672828,46.20950892413226
970,824.5449983964077,3.0,12.0,80.89401499382821,26.406229898736136,46.47157695762193
971,824.5449983964077,3.0,12.0,80.89401499382821,26.406229898736136,46.47157695762193
972,808.0540984284874,3.0,12.0,80.6658603153549,26.142167599748785,46.58770217513529
973,808.0540984284874,3.0,12.0,80.6658603153549,26.142167599748785,46.58770217513529
974,791.8930164599144,3.0,12.0,80.43972256594367,25.88074592375135,46.5957178229529
975,791.8930164599144,3.0,12.0,80.43972256594367,25.88074592375135,46.5957178229529
976,776.0551561307228,3.0,12.0,80.21536608982316,25.62193846451388,46.53076002231808
977,776.0551561307228,3.0,12.0,80.21536608982316,25.62193846451388,46.53076002231808
978,760.5340530080936,6.0,14.0,80.09190654575676,25.365719079868597,48.83417419451096
979,760.5340530080936,6.0,14.0,80.09190654575676,25.365719079868597,48.83417419451096
980,745.323371947935,6.0,14.0,79.96925701102502,25.112061889070088,50.01182208153525
981,745.323371947935,6.0,14.0,79.96925701102502,25.112061889070088,50.01182208153525
982,730.4169045089819,6.0,14.0,79.8470734083811,24.860941270179328,50.76474981831317
983,730.4169045089819,6.0,14.0,79.8470734083811,24.860941270179328,50.76474981831317
984,715.8085664187954,6.0,14.0,79.72579326769433,24.612331857477542,51.1510826854086
985,715.8085664187954,6.0,14.0,79.72579326769433,24.612331857477542,51.1510826854086
986,701.4923950904182,5.0,15.0,79.65473027955358,24.366208538902676,52.89548713616544
987,701.4923950904182,5.0,15.0,79.65473027955358,24.366208538902676,52.89548713616544
988,687.4625471886086,5.0,14.0,79.5357674984544,24.122546453513678,53.64361673236498
989,687.4625471886086,5.0,14.0,79.5357674984544,24.122546453513678,53.64361673236498
990,673.7132962448429,4.0,15.0,79.46681575491428,23.881320988978562,55.40851016343319
991,673.7132962448429,4.0,15.0,79.46681575491428,23.881320988978562,55.40851016343319
992,660.2390303199394,4.0,15.0,79.3980257523992,23.64250777908876,56.32174429050816
993,660.2390303199394,4.0,15.0,79.3980257523992,23.64250777908876,56.32174429050816
994,647.0342497135532,3.0,16.0,79.37847827966077,23.4060827012978,57.713043261831494
995,647.0342497135532,3.0,16.0,79.37847827966077,23.4060827012978,57.713043261831494
996,634.0935647192783,3.0,15.0,79.31077056282389,23.172021874284845,58.521675366363375
997,634.0935647192783,3.0,15.0,79.31077056282389,23.172021874284845,58.521675366363375
998,621.4116934248873,2.0,16.0,79.29309109303438,22.94030165554202,60.28121678687969
999,621.4116934248873,2.0,16.0,79.29309109303438,22.94030165554202,60.28121678687969
1000,621.4116934248873,2.0,16.0,79.29309109303438,22.94030165554202,60.28121678687969
